Discovery
…
Summary

Spotify was queried by the following terms. Up to 50 tracks per term were retrieved.

terms

 [1] "mozart"      "techno"      "lady gaga"   "chill out"   "acdc"       
 [6] "the beatles" "david bowie" "pop"         "hip hop"     "rock"       
[11] "indie"       "alternative"

`{r 1+1}` tracks in total

track_audio_features

# A tibble: 600 × 18
   danceabi…¹ energy   key loudn…²  mode speec…³ acous…⁴ instr…⁵ liven…⁶ valence
        <dbl>  <dbl> <int>   <dbl> <int>   <dbl>   <dbl>   <dbl>   <dbl>   <dbl>
 1     0.392  0.0121     2   -24.1     1  0.0438   0.975 5.51e-3  0.142   0.366 
 2     0.302  0.0721     5   -20.8     1  0.063    0.994 4.21e-4  0.098   0.148 
 3     0.0982 0.0614     9   -20.4     1  0.0369   0.981 6.94e-1  0.11    0.0371
 4     0.495  0.0575     2   -21.1     1  0.0453   0.978 1.19e-1  0.317   0.391 
 5     0.445  0.0182     5   -29.5     1  0.0633   0.995 1.35e-3  0.092   0.427 
 6     0.0847 0.0856     2   -24.7     0  0.0405   0.964 5.92e-1  0.289   0.0764
 7     0.391  0.144      9   -16.8     1  0.0421   0.926 3.93e-1  0.0903  0.352 
 8     0.374  0.0302     3   -24.9     1  0.0542   0.995 9.15e-5  0.105   0.147 
 9     0.355  0.188      7   -18.1     0  0.0369   0.975 8.59e-1  0.122   0.214 
10     0.224  0.104      4   -20.4     1  0.0477   0.939 6   e-1  0.106   0.125 
# … with 590 more rows, 8 more variables: tempo <dbl>, type <chr>, id <chr>,
#   uri <chr>, track_href <chr>, analysis_url <chr>, duration_ms <int>,
#   time_signature <int>, and abbreviated variable names ¹​danceability,
#   ²​loudness, ³​speechiness, ⁴​acousticness, ⁵​instrumentalness, ⁶​liveness
